# Title: CBC I2C Register settings for wafer test [scurve scan setting] (frame 17)  
# Fields: Page Address Value
# FieldTypes: int int int
1 0x00 0x40
1 0x01 0x20
1 0x02 0x87
#1 0x02 0x57
1 0x03 0x28
#1 0x03 0x0a
1 0x04 0x5a
1 0x05 0x6e
1 0x06 0x8c
1 0x07 0x2d
1 0x09 0x5a
1 0x0b 0x77
1 0x0c 0x08
1 0x0d 0xe1
#1 0x0d 0xC3
1 0x0e 0xf0
1 0x0f 0x20
1 0x10 0xf0
1 0x11 0x3f
1 0x12 0x23
1 0x13 0xff
1 0x14 0xff
1 0x1b 0x04
1 0x1c 0x80
1 0x1d 0x00
1 0x4f 0x90
1 0x50 0x01
