#test_name item value
frame03   be_config_file        cbc3_system_config_wt.txt
frame05   cbci2c_file           CBC_I2CREGS_CNFG_WT_FRAME5.txt
frame07   cbci2c_file           CBC_I2CREGS_CNFG_WT_FRAME7.txt
frame08   cbci2c_file           CBC_I2CREGS_CNFG_WT_FRAME8.txt
frame11   seq_file              SEQ_CNFG_WT_FRAME11.txt
frame11   cbci2c_file           CBC_I2CREGS_CNFG_WT_FRAME11.txt
frame13_a cbci2c_file           CBC_I2CREGS_CNFG_WT_FRAME13_1.txt
frame13_b cbci2c_file           CBC_I2CREGS_CNFG_WT_FRAME13_0.txt
frame14   cbci2c_file1          CBC_I2CREGS_CNFG_WT_FRAME14_1.txt
frame14   cbci2c_file2          CBC_I2CREGS_CNFG_WT_FRAME14_2.txt
frame14   target_bg             0.52
frame14   i2c_bg                0 
frame14   bg_output_file        frame14_bg_bgscan.txt
frame14   vdda_output_file      frame14_vdda_bgscan.txt
frame14   pause_measbg_bgscan   20 
frame14   pause_measvdda_bgscan 25 
frame15   cbci2c_file           CBC_I2CREGS_CNFG_WT_FRAME15.txt
frame16   run_config_file       wt_run_config_frame16.txt
frame16   cbci2c_file           CBC_I2CREGS_CNFG_WT_FRAME16.txt
frame17   run_config_file       wt_run_config_frame16.txt
frame17   cbci2c_file           CBC_I2CREGS_CNFG_WT_FRAME16.txt
frame17   cbci2c_offset_file    offset_tuning-be1cbc1.knt
frame17	  noise_lim             10
frame17	  gain_cut              20
frame18   vcth1                 200 
frame18   vcth2                 800 
frame18   cbci2c_file           CBC_I2CREGS_CNFG_WT_FRAME17.txt  
frame19   cbci2c_file           CBC_I2CREGS_CNFG_WT_FRAME17.txt  
frame20   cbci2c_file           CBC_I2CREGS_CNFG_WT_FRAME17.txt  
frame21   run_config_file       wt_run_config_frame21.txt  
frame21   cbci2c_file           CBC_I2CREGS_CNFG_WT_FRAME21.txt  
frame22   run_config_file       wt_run_config_frame21.txt  
frame22   cbci2c_file           CBC_I2CREGS_CNFG_WT_FRAME21.txt  
frame23   run_config_file       wt_run_config_frame21.txt  
frame23   cbci2c_file           CBC_I2CREGS_CNFG_WT_FRAME21.txt  
frame24   run_config_file       wt_run_config_frame21.txt  
frame24   cbci2c_file           CBC_I2CREGS_CNFG_WT_FRAME21.txt  
frame24   cbci2c_bends0_file    CBC_I2CREGS_BENDS_DEFAULT.txt  
frame24   cbci2c_bends1_file    CBC_I2CREGS_CNFG_WT_FRAME24.txt  
frame25   run_config_file       wt_run_config_frame21.txt  
frame25   cbci2c_file           CBC_I2CREGS_CNFG_WT_FRAME21.txt  
frame26   run_config_file       wt_run_config_frame21.txt  
frame26   cbci2c_file           CBC_I2CREGS_CNFG_WT_FRAME21.txt  
frame27   run_config_file       wt_run_config_frame21.txt  
frame27   cbci2c_offset_file    offset_tuning-be1cbc1.knt
frame27   cbci2c_file           CBC_I2CREGS_CNFG_WT_FRAME27.txt  
frame27   tp_pot                60 
frame27   vcth                  470 
frame28   pause_vcthscan        1
frame28   cbci2c_offset_file    offset_tuning-be1cbc1.knt
frame28   cbci2c_file           CBC_I2CREGS_CNFG_WT_FRAME28.txt  
frame29   cbci2c_offset_file    offset_tuning-be1cbc1.knt
frame29   cbci2c_file           CBC_I2CREGS_CNFG_WT_FRAME29.txt  
frame30   cbci2c_offset_file    offset_tuning-be1cbc1.knt
frame30   cbci2c_file           CBC_I2CREGS_CNFG_WT_FRAME29.txt  

