cs_cnfg.fcm.enable                                    0xC
cs_cnfg.fcm.fcg.enable                                0x7 
cs_cnfg.fcm.fcg.Ncycle                                304 
cs_cnfg.fcm.fcg.cycle_period                           40
cs_cnfg.fcm.fcg.trigger_timing                          2 
cs_cnfg.fcm.fcg.test_pulse_timing                     100 
cs_cnfg.fcm.fcg.orbit_reset_timing                   1000
#cs_cnfg.cbc_dp.cbc1.latencies.trig_data                12 
