3 Bends.cl_cntr_m7_m6h                      0x88
3 Bends.cl_cntr_m6_m5h                      0x88
3 Bends.cl_cntr_m5_m4h                      0x88
3 Bends.cl_cntr_m4_m3h                      0x88
3 Bends.cl_cntr_m3_m2h                      0xba
3 Bends.cl_cntr_m2_m1h                      0xdc
3 Bends.cl_cntr_m1_m0h                      0xfe
3 Bends.cl_cntr_c_p0h                       0x10
3 Bends.cl_cntr_p1_p1h                      0x32
3 Bends.cl_cntr_p2_p2h                      0x54
3 Bends.cl_cntr_p3_p3h                      0x86
3 Bends.cl_cntr_p4_p4h                      0x88
3 Bends.cl_cntr_p5_p5h                      0x88
3 Bends.cl_cntr_p6_p6h                      0x88
3 Bends.cl_cntr_p7                          0x88
