# Title: CBC I2C Register setting for WT FRAME13 BITS SET TO 0 
# Fields: Page(3 for name) Address(name) Value
# FieldTypes: int int(string) int
2 0x01 0x00
2 0x02 0x00
2 0x03 0x00
2 0x04 0x00
2 0x05 0x00
2 0x06 0x00
2 0x07 0x00
2 0x08 0x00
2 0x09 0x00
2 0x0a 0x00
2 0x0b 0x00
2 0x0c 0x00
2 0x0d 0x00
2 0x0e 0x00
2 0x0f 0x00
2 0x10 0x00
2 0x11 0x00
2 0x12 0x00
2 0x13 0x00
2 0x14 0x00
2 0x15 0x00
2 0x16 0x00
2 0x17 0x00
2 0x18 0x00
2 0x19 0x00
2 0x1a 0x00
2 0x1b 0x00
2 0x1c 0x00
2 0x1d 0x00
2 0x1e 0x00
2 0x1f 0x00
2 0x20 0x00
2 0x21 0x00
2 0x22 0x00
2 0x23 0x00
2 0x24 0x00
2 0x25 0x00
2 0x26 0x00
2 0x27 0x00
2 0x28 0x00
2 0x29 0x00
2 0x2a 0x00
2 0x2b 0x00
2 0x2c 0x00
2 0x2d 0x00
2 0x2e 0x00
2 0x2f 0x00
2 0x30 0x00
2 0x31 0x00
2 0x32 0x00
2 0x33 0x00
2 0x34 0x00
2 0x35 0x00
2 0x36 0x00
2 0x37 0x00
2 0x38 0x00
2 0x39 0x00
2 0x3a 0x00
2 0x3b 0x00
2 0x3c 0x00
2 0x3d 0x00
2 0x3e 0x00
2 0x3f 0x00
2 0x40 0x00
2 0x41 0x00
2 0x42 0x00
2 0x43 0x00
2 0x44 0x00
2 0x45 0x00
2 0x46 0x00
2 0x47 0x00
2 0x48 0x00
2 0x49 0x00
2 0x4a 0x00
2 0x4b 0x00
2 0x4c 0x00
2 0x4d 0x00
2 0x4e 0x00
2 0x4f 0x00
2 0x50 0x00
2 0x51 0x00
2 0x52 0x00
2 0x53 0x00
2 0x54 0x00
2 0x55 0x00
2 0x56 0x00
2 0x57 0x00
2 0x58 0x00
2 0x59 0x00
2 0x5a 0x00
2 0x5b 0x00
2 0x5c 0x00
2 0x5d 0x00
2 0x5e 0x00
2 0x5f 0x00
2 0x60 0x00
2 0x61 0x00
2 0x62 0x00
2 0x63 0x00
2 0x64 0x00
2 0x65 0x00
2 0x66 0x00
2 0x67 0x00
2 0x68 0x00
2 0x69 0x00
2 0x6a 0x00
2 0x6b 0x00
2 0x6c 0x00
2 0x6d 0x00
2 0x6e 0x00
2 0x6f 0x00
2 0x70 0x00
2 0x71 0x00
2 0x72 0x00
2 0x73 0x00
2 0x74 0x00
2 0x75 0x00
2 0x76 0x00
2 0x77 0x00
2 0x78 0x00
2 0x79 0x00
2 0x7a 0x00
2 0x7b 0x00
2 0x7c 0x00
2 0x7d 0x00
2 0x7e 0x00
2 0x7f 0x00
2 0x80 0x00
2 0x81 0x00
2 0x82 0x00
2 0x83 0x00
2 0x84 0x00
2 0x85 0x00
2 0x86 0x00
2 0x87 0x00
2 0x88 0x00
2 0x89 0x00
2 0x8a 0x00
2 0x8b 0x00
2 0x8c 0x00
2 0x8d 0x00
2 0x8e 0x00
2 0x8f 0x00
2 0x90 0x00
2 0x91 0x00
2 0x92 0x00
2 0x93 0x00
2 0x94 0x00
2 0x95 0x00
2 0x96 0x00
2 0x97 0x00
2 0x98 0x00
2 0x99 0x00
2 0x9a 0x00
2 0x9b 0x00
2 0x9c 0x00
2 0x9d 0x00
2 0x9e 0x00
2 0x9f 0x00
2 0xa0 0x00
2 0xa1 0x00
2 0xa2 0x00
2 0xa3 0x00
2 0xa4 0x00
2 0xa5 0x00
2 0xa6 0x00
2 0xa7 0x00
2 0xa8 0x00
2 0xa9 0x00
2 0xaa 0x00
2 0xab 0x00
2 0xac 0x00
2 0xad 0x00
2 0xae 0x00
2 0xaf 0x00
2 0xb0 0x00
2 0xb1 0x00
2 0xb2 0x00
2 0xb3 0x00
2 0xb4 0x00
2 0xb5 0x00
2 0xb6 0x00
2 0xb7 0x00
2 0xb8 0x00
2 0xb9 0x00
2 0xba 0x00
2 0xbb 0x00
2 0xbc 0x00
2 0xbd 0x00
2 0xbe 0x00
2 0xbf 0x00
2 0xc0 0x00
2 0xc1 0x00
2 0xc2 0x00
2 0xc3 0x00
2 0xc4 0x00
2 0xc5 0x00
2 0xc6 0x00
2 0xc7 0x00
2 0xc8 0x00
2 0xc9 0x00
2 0xca 0x00
2 0xcb 0x00
2 0xcc 0x00
2 0xcd 0x00
2 0xce 0x00
2 0xcf 0x00
2 0xd0 0x00
2 0xd1 0x00
2 0xd2 0x00
2 0xd3 0x00
2 0xd4 0x00
2 0xd5 0x00
2 0xd6 0x00
2 0xd7 0x00
2 0xd8 0x00
2 0xd9 0x00
2 0xda 0x00
2 0xdb 0x00
2 0xdc 0x00
2 0xdd 0x00
2 0xde 0x00
2 0xdf 0x00
2 0xe0 0x00
2 0xe1 0x00
2 0xe2 0x00
2 0xe3 0x00
2 0xe4 0x00
2 0xe5 0x00
2 0xe6 0x00
2 0xe7 0x00
2 0xe8 0x00
2 0xe9 0x00
2 0xea 0x00
2 0xeb 0x00
2 0xec 0x00
2 0xed 0x00
2 0xee 0x00
2 0xef 0x00
2 0xf0 0x00
2 0xf1 0x00
2 0xf2 0x00
2 0xf3 0x00
2 0xf4 0x00
2 0xf5 0x00
2 0xf6 0x00
2 0xf7 0x00
2 0xf8 0x00
2 0xf9 0x00
2 0xfa 0x00
2 0xfb 0x00
2 0xfc 0x00
2 0xfd 0x00
2 0xfe 0x00
2 0xff 0x00
3 Bends.cl_cntr_m7_m6h 0x00
3 Bends.cl_cntr_m6_m5h 0x00
3 Bends.cl_cntr_m5_m4h 0x00
3 Bends.cl_cntr_m4_m3h 0x00
3 Bends.cl_cntr_m3_m2h 0x00
3 Bends.cl_cntr_m2_m1h 0x00
3 Bends.cl_cntr_m1_m0h 0x00
3 Bends.cl_cntr_c_p0h 0x00
3 Bends.cl_cntr_p1_p1h 0x00
3 Bends.cl_cntr_p2_p2h 0x00
3 Bends.cl_cntr_p3_p3h 0x00
3 Bends.cl_cntr_p4_p4h 0x00
3 Bends.cl_cntr_p5_p5h 0x00
3 Bends.cl_cntr_p6_p6h 0x00
3 Bends.cl_cntr_p7 0x00
3 MaskChannels.ch_001_008 0x00
3 MaskChannels.ch_009_016 0x00
3 MaskChannels.ch_017_024 0x00
3 MaskChannels.ch_025_032 0x00
3 MaskChannels.ch_033_040 0x00
3 MaskChannels.ch_041_048 0x00
3 MaskChannels.ch_049_056 0x00
3 MaskChannels.ch_057_064 0x00
3 MaskChannels.ch_065_072 0x00
3 MaskChannels.ch_073_080 0x00
3 MaskChannels.ch_081_088 0x00
3 MaskChannels.ch_089_096 0x00
3 MaskChannels.ch_097_104 0x00
3 MaskChannels.ch_105_112 0x00
3 MaskChannels.ch_113_120 0x00
3 MaskChannels.ch_121_128 0x00
3 MaskChannels.ch_129_136 0x00
3 MaskChannels.ch_137_144 0x00
3 MaskChannels.ch_145_152 0x00
3 MaskChannels.ch_153_160 0x00
3 MaskChannels.ch_161_168 0x00
3 MaskChannels.ch_169_176 0x00
3 MaskChannels.ch_177_184 0x00
3 MaskChannels.ch_185_192 0x00
3 MaskChannels.ch_193_200 0x00
3 MaskChannels.ch_201_208 0x00
3 MaskChannels.ch_209_216 0x00
3 MaskChannels.ch_217_224 0x00
3 MaskChannels.ch_225_232 0x00
3 MaskChannels.ch_233_240 0x00
3 MaskChannels.ch_241_248 0x00
3 MaskChannels.ch_249_254 0x00
