UNMASK_CH 1,33,34,253,254
COM       0x81104f20
COM       0x81105003
COM       0x22000000
COM       0xa0011200 //fast reset & reb recording
COM       0xa0530000 //pause
COM	  0xa0010100 //T1
COM       0xe0000000

