3 Bends.cl_cntr_m7_m6h                      0x99
3 Bends.cl_cntr_m6_m5h                      0xaa
3 Bends.cl_cntr_m5_m4h                      0xbb
3 Bends.cl_cntr_m4_m3h                      0xcc
3 Bends.cl_cntr_m3_m2h                      0xdd
3 Bends.cl_cntr_m2_m1h                      0xee
3 Bends.cl_cntr_m1_m0h                      0xff
3 Bends.cl_cntr_c_p0h                       0x00
3 Bends.cl_cntr_p1_p1h                      0x11
3 Bends.cl_cntr_p2_p2h                      0x22
3 Bends.cl_cntr_p3_p3h                      0x33
3 Bends.cl_cntr_p4_p4h                      0x44
3 Bends.cl_cntr_p5_p5h                      0x55
3 Bends.cl_cntr_p6_p6h                      0x66
3 Bends.cl_cntr_p7                          0x87
